src/ecpri/rx_tx/ecpri.vcd
$date
	Mon Nov 16 19:55:53 2020
$end
$version
	Icarus Verilog
$end
$timescale
	1ns
$end
$scope module tb_ecpri $end
$var wire 8 ! data_ecpri_rx_2_ram_cpri_payload [7:0] $end
$var wire 8 " data_ecpri_tx_2_ram_cpri_packet [7:0] $end
$var wire 8 # data_to_eth_ram [7:0] $end
$var wire 1 $ we_ecpri_tx_2_ram_eth_packet_hdr $end
$var wire 1 % we_ecpri_tx_2_ram_cpri_payload $end
$var wire 1 & we_ecpri_tx_2_ram_cpri_packet $end
$var wire 1 ' we_ecpri_rx_2_ram_eth_packet_hdr $end
$var wire 1 ( we_ecpri_rx_2_ram_cpri_payload $end
$var wire 1 ) we_ecpri_rx_2_eth_ram $end
$var wire 1 * send_write_resp $end
$var wire 1 + send_read_resp $end
$var wire 8 , resp_payload_len [7:0] $end
$var wire 1 - oe_ecpri_tx_2_ram_eth_packet_hdr $end
$var wire 1 . oe_ecpri_tx_2_ram_cpri_payload $end
$var wire 1 / oe_ecpri_tx_2_ram_cpri_packet $end
$var wire 1 0 oe_ecpri_rx_2_ram_eth_packet_hdr $end
$var wire 1 1 oe_ecpri_rx_2_ram_cpri_payload $end
$var wire 1 2 oe_ecpri_rx_2_eth_ram $end
$var wire 8 3 data_ram_cpri_packet [7:0] $end
$var wire 8 4 data_ecpri_tx_2_ram_eth_packet_hdr [7:0] $end
$var wire 8 5 data_ecpri_tx_2_ram_cpri_payload [7:0] $end
$var wire 8 6 data_ecpri_rx_2_ram_eth_packet_hdr [7:0] $end
$var wire 8 7 data_ecpri_rx_2_eth_ram [7:0] $end
$var wire 1 8 cpr_pkt_rdy_flg $end
$var wire 16 9 addr_ecpri_tx_2_ram_eth_packet_hdr [15:0] $end
$var wire 16 : addr_ecpri_tx_2_ram_cpri_payload [15:0] $end
$var wire 16 ; addr_ecpri_tx_2_ram_cpri_packet [15:0] $end
$var wire 16 < addr_ecpri_rx_2_ram_eth_packet_hdr [15:0] $end
$var wire 16 = addr_ecpri_rx_2_ram_cpri_payload [15:0] $end
$var wire 16 > addr_ecpri_rx_2_eth_ram [15:0] $end
$var reg 16 ? addr_ram_cpri_packet [15:0] $end
$var reg 16 @ addr_to_eth_ram [15:0] $end
$var reg 1 A clk $end
$var reg 1 B cs_0 $end
$var reg 1 C cs_1 $end
$var reg 1800 D err_str [1800:1] $end
$var reg 32 E i [31:0] $end
$var reg 8 F inp_data_fifo [7:0] $end
$var reg 32 G j [31:0] $end
$var reg 1 H oe_ram_cpri_packet $end
$var reg 1 I oe_to_eth_ram $end
$var reg 32 J payload_len [31:0] $end
$var reg 1 K recv_pkt $end
$var reg 1 L reset $end
$var reg 8 M tb_data [7:0] $end
$var reg 32 N temp [31:0] $end
$var reg 1 O we_ram_cpri_packet $end
$var reg 1 P we_to_eth_ram $end
$var integer 32 Q eof [31:0] $end
$var integer 32 R errorno [31:0] $end
$var integer 32 S fd [31:0] $end
$var integer 32 T fdw [31:0] $end
$var integer 32 U pcap_file_hdr_len [31:0] $end
$var integer 32 V pcap_payload_offset [31:0] $end
$var integer 32 W pcap_pkt_hdr_len [31:0] $end
$var integer 32 X return_value [31:0] $end
$scope module dut_ecpri_rx $end
$var wire 1 A clk $end
$var wire 8 Y inp_data_fifo [7:0] $end
$var wire 1 K recv_pkt $end
$var wire 1 L reset $end
$var wire 8 Z data_1 [7:0] $end
$var reg 16 [ addr_0 [15:0] $end
$var reg 16 \ addr_1 [15:0] $end
$var reg 16 ] addr_2 [15:0] $end
$var reg 8 ^ data_0 [7:0] $end
$var reg 8 _ data_2 [7:0] $end
$var reg 8 ` g_hdr_offset [7:0] $end
$var reg 8 a g_msg_type [7:0] $end
$var reg 16 b g_payload_len [15:0] $end
$var reg 8 c g_ver [7:0] $end
$var reg 8 d l_rm_acc_id [7:0] $end
$var reg 48 e l_rm_addr [47:0] $end
$var reg 16 f l_rm_ele_id [15:0] $end
$var reg 16 g l_rm_len [15:0] $end
$var reg 8 h l_rm_mem_hdr_offset [7:0] $end
$var reg 8 i l_rm_rw_req_resp [7:0] $end
$var reg 8 j next_state [7:0] $end
$var reg 1 0 oe_0 $end
$var reg 1 2 oe_1 $end
$var reg 1 1 oe_2 $end
$var reg 8 k prev_d [7:0] $end
$var reg 8 l resp_payload_len [7:0] $end
$var reg 1 + send_read_resp $end
$var reg 1 * send_write_resp $end
$var reg 8 m state [7:0] $end
$var reg 1 ' we_0 $end
$var reg 1 ) we_1 $end
$var reg 1 ( we_2 $end
$upscope $end
$scope module dut_ecpri_tx $end
$var wire 1 A clk $end
$var wire 1 K recv_pkt $end
$var wire 1 L reset $end
$var wire 8 n resp_payload_len [7:0] $end
$var wire 1 + send_read_resp $end
$var wire 1 * send_write_resp $end
$var wire 8 o data_0 [7:0] $end
$var reg 16 p addr_0 [15:0] $end
$var reg 16 q addr_1 [15:0] $end
$var reg 16 r addr_2 [15:0] $end
$var reg 1 8 cpri_pkt_rdy_flg $end
$var reg 8 s data_1 [7:0] $end
$var reg 8 t data_2 [7:0] $end
$var reg 8 u g_hdr_addr [7:0] $end
$var reg 8 v g_msg_type [7:0] $end
$var reg 16 w g_payload_len [15:0] $end
$var reg 8 x g_ver [7:0] $end
$var reg 8 y l_rm_acc_id [7:0] $end
$var reg 48 z l_rm_addr [47:0] $end
$var reg 16 { l_rm_ele_id [15:0] $end
$var reg 16 | l_rm_len [15:0] $end
$var reg 8 } l_rm_mem_hdr_addr [7:0] $end
$var reg 8 ~ l_rm_rw_req_resp [7:0] $end
$var reg 8 !" next_state [7:0] $end
$var reg 1 . oe_0 $end
$var reg 1 / oe_1 $end
$var reg 1 - oe_2 $end
$var reg 8 "" state [7:0] $end
$var reg 1 % we_0 $end
$var reg 1 & we_1 $end
$var reg 1 $ we_2 $end
$upscope $end
$scope module ram_cpri_packet $end
$var wire 16 #" address_0 [15:0] $end
$var wire 16 $" address_1 [15:0] $end
$var wire 1 A clk $end
$var wire 1 B cs_0 $end
$var wire 1 C cs_1 $end
$var wire 8 %" data_0 [7:0] $end
$var wire 1 / oe_0 $end
$var wire 1 H oe_1 $end
$var wire 1 & we_0 $end
$var wire 1 O we_1 $end
$var wire 8 &" data_1 [7:0] $end
$var reg 8 '" data_0_out [7:0] $end
$var reg 8 (" data_1_out [7:0] $end
$scope begin MEM_READ_0 $end
$upscope $end
$scope begin MEM_READ_1 $end
$upscope $end
$scope begin MEM_WRITE $end
$upscope $end
$upscope $end
$scope module ram_cpri_payload $end
$var wire 16 )" address_0 [15:0] $end
$var wire 16 *" address_1 [15:0] $end
$var wire 1 A clk $end
$var wire 1 B cs_0 $end
$var wire 1 C cs_1 $end
$var wire 8 +" data_0 [7:0] $end
$var wire 1 1 oe_0 $end
$var wire 1 . oe_1 $end
$var wire 1 ( we_0 $end
$var wire 1 % we_1 $end
$var wire 8 ," data_1 [7:0] $end
$var reg 8 -" data_0_out [7:0] $end
$var reg 8 ." data_1_out [7:0] $end
$scope begin MEM_READ_0 $end
$upscope $end
$scope begin MEM_READ_1 $end
$upscope $end
$scope begin MEM_WRITE $end
$upscope $end
$upscope $end
$scope module ram_recv_eth_packet $end
$var wire 16 /" address_0 [15:0] $end
$var wire 16 0" address_1 [15:0] $end
$var wire 1 A clk $end
$var wire 1 B cs_0 $end
$var wire 1 C cs_1 $end
$var wire 8 1" data_0 [7:0] $end
$var wire 1 I oe_0 $end
$var wire 1 2 oe_1 $end
$var wire 1 P we_0 $end
$var wire 1 ) we_1 $end
$var wire 8 2" data_1 [7:0] $end
$var reg 8 3" data_0_out [7:0] $end
$var reg 8 4" data_1_out [7:0] $end
$scope begin MEM_READ_0 $end
$upscope $end
$scope begin MEM_READ_1 $end
$upscope $end
$scope begin MEM_WRITE $end
$upscope $end
$upscope $end
$upscope $end
$scope module tb_ecpri $end
$scope module ram_recv_eth_packet $end
$scope begin MEM_READ_0 $end
$upscope $end
$scope begin MEM_READ_1 $end
$upscope $end
$scope begin MEM_WRITE $end
$upscope $end
$upscope $end
$upscope $end
$scope module tb_ecpri $end
$scope module dut_ecpri_rx $end
$upscope $end
$upscope $end
$scope module tb_ecpri $end
$scope module dut_ecpri_tx $end
$upscope $end
$upscope $end
$scope module tb_ecpri $end
$scope module ram_cpri_payload $end
$scope begin MEM_READ_0 $end
$upscope $end
$scope begin MEM_READ_1 $end
$upscope $end
$scope begin MEM_WRITE $end
$upscope $end
$upscope $end
$upscope $end
$enddefinitions $end
#0
$dumpvars
bx 4"
bx 3"
bx 2"
bx 1"
bx 0"
bx /"
bx ."
bx -"
bx ,"
bx +"
bx *"
bx )"
bx ("
bx '"
bx &"
bx %"
bx $"
bx #"
bx ""
bx !"
bx ~
bx }
bx |
bx {
bx z
bx y
bx x
bx w
bx v
bx u
bx t
bx s
bx r
bx q
bx p
bx o
bx n
bx m
bx l
bx k
bx j
bx i
bx h
bx g
bx f
bx e
bx d
bx c
bx b
bx a
bx `
bx _
bx ^
bx ]
bx \
bx [
bx Z
bx Y
bx X
bx W
bx V
bx U
bx T
bx S
bx R
bx Q
xP
xO
bx N
bx M
xL
xK
bx J
xI
xH
bx G
bx F
bx E
bx D
xC
xB
0A
bx @
bx ?
bx >
bx =
bx <
bx ;
bx :
bx 9
x8
bx 7
bx 6
bx 5
bx 4
bx 3
x2
x1
x0
x/
x.
x-
bx ,
x+
x*
x)
x(
x'
x&
x%
x$
bx #
bx "
bx !
$end
#10000
b0 ("
b0 '"
b0 ."
b0 -"
b0 4"
b0 3"
12
b0 G
b0 E
0P
b0 @
b0 /"
0L
1A
#20000
0A
#30000
1A
b1101000 Q
b10000000000000000000000000000100 T
b10000000000000000000000000000011 S
#40000
0A
#50000
1A
#60000
0A
#70000
1A
#80000
0A
b1000000 J
b1101000 N
b10000 X
b101000 V
b10000000 W
b11000000 U
#90000
1A
#100000
0A
#110000
1A
#120000
0A
#130000
b0 #
b0 1"
b1 G
b0 M
0I
1B
1P
1A
b101001 E
#140000
0A
#150000
b10000000 #
b10000000 1"
b101010 E
b10 G
b10000000 M
b1 @
b1 /"
1A
#160000
0A
#170000
b10110 #
b10110 1"
b101011 E
b11 G
b10110 M
b10 @
b10 /"
1A
#180000
0A
#190000
b0 #
b0 1"
b101100 E
b100 G
b0 M
b11 @
b11 /"
1A
#200000
0A
#210000
b101101 E
b101 G
b100 @
b100 /"
1A
#220000
0A
#230000
b101110 E
b110 G
b101 @
b101 /"
1A
#240000
0A
#250000
b101111 E
b111 G
b110 @
b110 /"
1A
#260000
0A
#270000
b10000000 #
b10000000 1"
b110000 E
b1000 G
b10000000 M
b111 @
b111 /"
1A
#280000
0A
#290000
b10110 #
b10110 1"
b110001 E
b1001 G
b10110 M
b1000 @
b1000 /"
1A
#300000
0A
#310000
b10001000 #
b10001000 1"
b110010 E
b1010 G
b10001000 M
b1001 @
b1001 /"
1A
#320000
0A
#330000
b1001110 #
b1001110 1"
b110011 E
b1011 G
b1001110 M
b1010 @
b1010 /"
1A
#340000
0A
#350000
b11111111 #
b11111111 1"
b110100 E
b1100 G
b11111111 M
b1011 @
b1011 /"
1A
#360000
0A
#370000
b10101110 #
b10101110 1"
b110101 E
b1101 G
b10101110 M
b1100 @
b1100 /"
1A
#380000
0A
#390000
b11111110 #
b11111110 1"
b110110 E
b1110 G
b11111110 M
b1101 @
b1101 /"
1A
#400000
0A
#410000
b10000 #
b10000 1"
b110111 E
b1111 G
b10000 M
b1110 @
b1110 /"
1A
#420000
0A
#430000
b100 #
b100 1"
b111000 E
b10000 G
b100 M
b1111 @
b1111 /"
1A
#440000
0A
#450000
b0 #
b0 1"
b111001 E
b10001 G
b0 M
b10000 @
b10000 /"
1A
#460000
0A
#470000
b11100 #
b11100 1"
b111010 E
b10010 G
b11100 M
b10001 @
b10001 /"
1A
#480000
0A
#490000
b10001 #
b10001 1"
b111011 E
b10011 G
b10001 M
b10010 @
b10010 /"
1A
#500000
0A
#510000
b0 #
b0 1"
b111100 E
b10100 G
b0 M
b10011 @
b10011 /"
1A
#520000
0A
#530000
b100010 #
b100010 1"
b111101 E
b10101 G
b100010 M
b10100 @
b10100 /"
1A
#540000
0A
#550000
b110011 #
b110011 1"
b111110 E
b10110 G
b110011 M
b10101 @
b10101 /"
1A
#560000
0A
#570000
b101 #
b101 1"
b111111 E
b10111 G
b101 M
b10110 @
b10110 /"
1A
#580000
0A
#590000
b100 #
b100 1"
b1000000 E
b11000 G
b100 M
b10111 @
b10111 /"
1A
#600000
0A
#610000
b11 #
b11 1"
b1000001 E
b11001 G
b11 M
b11000 @
b11000 /"
1A
#620000
0A
#630000
b10 #
b10 1"
b1000010 E
b11010 G
b10 M
b11001 @
b11001 /"
1A
#640000
0A
#650000
b1 #
b1 1"
b1000011 E
b11011 G
b1 M
b11010 @
b11010 /"
1A
#660000
0A
#670000
b0 #
b0 1"
b1000100 E
b11100 G
b0 M
b11011 @
b11011 /"
1A
#680000
0A
#690000
b1000101 E
b11101 G
b11100 @
b11100 /"
1A
#700000
0A
#710000
b10000 #
b10000 1"
b1000110 E
b11110 G
b10000 M
b11101 @
b11101 /"
1A
#720000
0A
#730000
b11111111 #
b11111111 1"
b1000111 E
b11111 G
b11111111 M
b11110 @
b11110 /"
1A
#740000
0A
#750000
b11101110 #
b11101110 1"
b1001000 E
b100000 G
b11101110 M
b11111 @
b11111 /"
1A
#760000
0A
#770000
b11011101 #
b11011101 1"
b1001001 E
b100001 G
b11011101 M
b100000 @
b100000 /"
1A
#780000
0A
#790000
b11001100 #
b11001100 1"
b1001010 E
b100010 G
b11001100 M
b100001 @
b100001 /"
1A
#800000
0A
#810000
b10111011 #
b10111011 1"
b1001011 E
b100011 G
b10111011 M
b100010 @
b100010 /"
1A
#820000
0A
#830000
b10101010 #
b10101010 1"
b1001100 E
b100100 G
b10101010 M
b100011 @
b100011 /"
1A
#840000
0A
#850000
b10011001 #
b10011001 1"
b1001101 E
b100101 G
b10011001 M
b100100 @
b100100 /"
1A
#860000
0A
#870000
b10001000 #
b10001000 1"
b1001110 E
b100110 G
b10001000 M
b100101 @
b100101 /"
1A
#880000
0A
#890000
b1110111 #
b1110111 1"
b1001111 E
b100111 G
b1110111 M
b100110 @
b100110 /"
1A
#900000
0A
#910000
b1100110 #
b1100110 1"
b1010000 E
b101000 G
b1100110 M
b100111 @
b100111 /"
1A
#920000
0A
#930000
b1010101 #
b1010101 1"
b1010001 E
b101001 G
b1010101 M
b101000 @
b101000 /"
1A
#940000
0A
#950000
b1000100 #
b1000100 1"
b1010010 E
b101010 G
b1000100 M
b101001 @
b101001 /"
1A
#960000
0A
#970000
b110011 #
b110011 1"
b1010011 E
b101011 G
b110011 M
b101010 @
b101010 /"
1A
#980000
0A
#990000
b100010 #
b100010 1"
b1010100 E
b101100 G
b100010 M
b101011 @
b101011 /"
1A
#1000000
0A
#1010000
b10001 #
b10001 1"
b1010101 E
b101101 G
b10001 M
b101100 @
b101100 /"
1A
#1020000
0A
#1030000
b0 #
b0 1"
b1010110 E
b101110 G
b0 M
b101101 @
b101101 /"
1A
#1040000
0A
#1050000
b1010111 E
b101111 G
b101110 @
b101110 /"
1A
#1060000
0A
#1070000
b1011000 E
b110000 G
b101111 @
b101111 /"
1A
#1080000
0A
#1090000
b1011001 E
b110001 G
b110000 @
b110000 /"
1A
#1100000
0A
#1110000
b1011010 E
b110010 G
b110001 @
b110001 /"
1A
#1120000
0A
#1130000
b1011011 E
b110011 G
b110010 @
b110010 /"
1A
#1140000
0A
#1150000
b1011100 E
b110100 G
b110011 @
b110011 /"
1A
#1160000
0A
#1170000
b1011101 E
b110101 G
b110100 @
b110100 /"
1A
#1180000
0A
#1190000
b1011110 E
b110110 G
b110101 @
b110101 /"
1A
#1200000
0A
#1210000
b1011111 E
b110111 G
b110110 @
b110110 /"
1A
#1220000
0A
#1230000
b1100000 E
b111000 G
b110111 @
b110111 /"
1A
#1240000
0A
#1250000
b1100001 E
b111001 G
b111000 @
b111000 /"
1A
#1260000
0A
#1270000
b1100010 E
b111010 G
b111001 @
b111001 /"
1A
#1280000
0A
#1290000
b1100011 E
b111011 G
b111010 @
b111010 /"
1A
#1300000
0A
#1310000
b1100100 E
b111100 G
b111011 @
b111011 /"
1A
#1320000
0A
#1330000
b100010 #
b100010 1"
b1100101 E
b111101 G
b100010 M
b111100 @
b111100 /"
1A
#1340000
0A
#1350000
b110011 #
b110011 1"
b1100110 E
b111110 G
b110011 M
b111101 @
b111101 /"
1A
#1360000
0A
#1370000
b1000100 #
b1000100 1"
b1100111 E
b111111 G
b1000100 M
b111110 @
b111110 /"
1A
#1380000
0A
#1390000
b1010101 #
b1010101 1"
b1101000 E
b1000000 G
b1010101 M
b111111 @
b111111 /"
1A
#1400000
0A
#1410000
1A
#1420000
0A
#1430000
1A
#1440000
0A
b0 E
#1450000
b1 E
1A
#1460000
0A
#1470000
b10 E
1A
#1480000
0A
#1490000
b11 E
1A
#1500000
0A
#1510000
b100 E
1A
#1520000
0A
#1530000
b101 E
1A
#1540000
0A
#1550000
b110 E
1A
#1560000
0A
#1570000
b111 E
1A
#1580000
0A
#1590000
b1000 E
1A
#1600000
0A
#1610000
b1001 E
1A
#1620000
0A
#1630000
b1010 E
1A
#1640000
0A
#1650000
b1011 E
1A
#1660000
0A
#1670000
b1100 E
1A
#1680000
0A
#1690000
b1101 E
1A
#1700000
0A
#1710000
b1110 E
1A
#1720000
0A
#1730000
b1111 E
1A
#1740000
0A
#1750000
b10000 E
1A
#1760000
0A
#1770000
b10001 E
1A
#1780000
0A
#1790000
b10010 E
1A
#1800000
0A
#1810000
b10011 E
1A
#1820000
0A
#1830000
b10100 E
1A
#1840000
0A
#1850000
b10101 E
1A
#1860000
0A
#1870000
b10110 E
1A
#1880000
0A
#1890000
b10111 E
1A
#1900000
0A
#1910000
b11000 E
1A
#1920000
0A
#1930000
b11001 E
1A
#1940000
0A
#1950000
b11010 E
1A
#1960000
0A
#1970000
b11011 E
1A
#1980000
0A
#1990000
b11100 E
1A
#2000000
0A
#2010000
b11101 E
1A
#2020000
0A
#2030000
b11110 E
1A
#2040000
0A
#2050000
b11111 E
1A
#2060000
0A
#2070000
b100000 E
1A
#2080000
0A
#2090000
b100001 E
1A
#2100000
0A
#2110000
b100010 E
1A
#2120000
0A
#2130000
b100011 E
1A
#2140000
0A
#2150000
b100100 E
1A
#2160000
0A
#2170000
b100101 E
1A
#2180000
0A
#2190000
b100110 E
1A
#2200000
0A
#2210000
b100111 E
1A
#2220000
0A
#2230000
b101000 E
1A
#2240000
0A
#2250000
1A
#2260000
0A
#2270000
1A
#2280000
0A
#2290000
1A
#2300000
0A
#2310000
1A
#2320000
0A
#2330000
b0 "
b0 %"
bz 5
bz o
bz ,"
b0 !
b0 +"
bz 7
bz Z
bz 2"
b0 |
b0 z
b0 {
b0 ~
b0 y
b0 w
b0 v
b0 x
b0 u
0-
0$
b0 4
b0 t
b0 9
b0 r
0/
0&
b0 s
b0 ;
b0 q
b0 #"
0.
0%
b0 :
b0 p
b0 *"
b1 !"
b1 ""
b0 g
b0 e
b0 f
b0 i
b0 d
b0 b
b0 a
b0 c
b0 `
b0 j
01
0(
b0 _
b0 =
b0 ]
b0 )"
02
0)
b0 >
b0 \
b0 0"
00
0'
b0 6
b0 ^
b0 <
b0 [
b0 ,
b0 l
b0 n
0+
0*
b0 m
1L
1A
#2340000
0A
#2350000
1A
#2360000
0A
#2370000
1A
#2380000
0A
#2390000
0L
1A
#2400000
0A
#2410000
bx 7
bx Z
bx 2"
bz 6
bz ^
b1 <
b1 [
12
bz k
b1 >
b1 \
b1 0"
1A
#2420000
0A
#2430000
bx 6
bx ^
b10 <
b10 [
bx k
b10 >
b10 \
b10 0"
1A
#2440000
0A
b0 E
#2450000
b0 7
b0 Z
b0 2"
0B
1C
1K
b11 <
b11 [
b11 >
b11 \
b11 0"
b1 E
1A
#2460000
0A
#2470000
b10110 7
b10110 Z
b10110 2"
b10110 4"
b1 j
b0 6
b0 ^
b100 <
b100 [
b0 k
b100 >
b100 \
b100 0"
b10 E
1A
#2480000
0A
#2490000
1'
b0 7
b0 Z
b0 2"
b0 4"
b10110 6
b10110 ^
b101 <
b101 [
b10110 k
b101 >
b101 \
b101 0"
b1 m
b11 E
1A
#2500000
0A
#2510000
b0 6
b0 ^
b110 <
b110 [
b0 k
b110 >
b110 \
b110 0"
b100 E
1A
#2520000
0A
#2530000
b111 <
b111 [
b111 >
b111 \
b111 0"
b101 E
1A
#2540000
0A
#2550000
b1000 <
b1000 [
b1000 >
b1000 \
b1000 0"
b110 E
1A
#2560000
0A
#2570000
b10000000 7
b10000000 Z
b10000000 2"
b10000000 4"
b1001 <
b1001 [
b1001 >
b1001 \
b1001 0"
b111 E
1A
#2580000
0A
#2590000
b10110 7
b10110 Z
b10110 2"
b10110 4"
b10000000 6
b10000000 ^
b1010 <
b1010 [
b10000000 k
b1010 >
b1010 \
b1010 0"
b1000 E
1A
#2600000
0A
#2610000
b10001000 7
b10001000 Z
b10001000 2"
b10001000 4"
b10110 6
b10110 ^
b1011 <
b1011 [
b10110 k
b1011 >
b1011 \
b1011 0"
b1001 E
1A
#2620000
0A
#2630000
b1001110 7
b1001110 Z
b1001110 2"
b1001110 4"
b10001000 6
b10001000 ^
b1100 <
b1100 [
b10001000 k
b1100 >
b1100 \
b1100 0"
b1010 E
1A
#2640000
0A
#2650000
b11111111 7
b11111111 Z
b11111111 2"
b11111111 4"
b1001110 6
b1001110 ^
b1101 <
b1101 [
b1001110 k
b1101 >
b1101 \
b1101 0"
b1011 E
1A
#2660000
0A
#2670000
b10101110 7
b10101110 Z
b10101110 2"
b10101110 4"
b11111111 6
b11111111 ^
b1110 <
b1110 [
b11111111 k
b1110 >
b1110 \
b1110 0"
b1100 E
1A
#2680000
0A
#2690000
b11111110 7
b11111110 Z
b11111110 2"
b11111110 4"
b10101110 6
b10101110 ^
b1111 <
b1111 [
b10101110 k
b1111 >
b1111 \
b1111 0"
b1101 E
1A
#2700000
0A
#2710000
b10000 7
b10000 Z
b10000 2"
b10000 4"
b10 j
b11111110 6
b11111110 ^
b10000 <
b10000 [
b11111110 k
b10000 >
b10000 \
b10000 0"
b1110 E
1A
#2720000
0A
#2730000
b100 7
b100 Z
b100 2"
b100 4"
b1 `
b10000 c
b10000 6
b10000 ^
b10001 <
b10001 [
b10000 k
b10001 >
b10001 \
b10001 0"
b10 m
b1111 E
1A
#2740000
0A
#2750000
b0 7
b0 Z
b0 2"
b0 4"
b10 `
b100 a
b100 6
b100 ^
b10010 <
b10010 [
b100 k
b10010 >
b10010 \
b10010 0"
b10000 E
1A
#2760000
0A
#2770000
b11100 7
b11100 Z
b11100 2"
b11100 4"
b11 `
b0 6
b0 ^
b10011 <
b10011 [
b0 k
b10011 >
b10011 \
b10011 0"
b10001 E
1A
#2780000
0A
#2790000
b10001 7
b10001 Z
b10001 2"
b10001 4"
b100 `
b0 h
b11 j
b11100 b
b11100 6
b11100 ^
b10100 <
b10100 [
b11100 k
b10100 >
b10100 \
b10100 0"
b10010 E
1A
#2800000
0A
#2810000
b0 7
b0 Z
b0 2"
b0 4"
b1 h
b10001 d
b10001 6
b10001 ^
b10101 <
b10101 [
b10001 k
b10101 >
b10101 \
b10101 0"
b11 m
b10011 E
1A
#2820000
0A
#2830000
b100010 7
b100010 Z
b100010 2"
b100010 4"
b10 h
b0 6
b0 ^
b10110 <
b10110 [
b0 k
b10110 >
b10110 \
b10110 0"
b10100 E
1A
#2840000
0A
#2850000
b110011 7
b110011 Z
b110011 2"
b110011 4"
b11 h
b100010 f
b100010 6
b100010 ^
b10111 <
b10111 [
b100010 k
b10111 >
b10111 \
b10111 0"
b10101 E
1A
#2860000
0A
#2870000
b101 7
b101 Z
b101 2"
b101 4"
b100 h
b10001000110011 f
b110011 6
b110011 ^
b11000 <
b11000 [
b110011 k
b11000 >
b11000 \
b11000 0"
b10110 E
1A
#2880000
0A
#2890000
b100 7
b100 Z
b100 2"
b100 4"
b101 h
b101 e
b101 6
b101 ^
b11001 <
b11001 [
b101 k
b11001 >
b11001 \
b11001 0"
b10111 E
1A
#2900000
0A
#2910000
b11 7
b11 Z
b11 2"
b11 4"
b110 h
b10100000100 e
b100 6
b100 ^
b11010 <
b11010 [
b100 k
b11010 >
b11010 \
b11010 0"
b11000 E
1A
#2920000
0A
#2930000
b10 7
b10 Z
b10 2"
b10 4"
b111 h
b1010000010000000011 e
b11 6
b11 ^
b11011 <
b11011 [
b11 k
b11011 >
b11011 \
b11011 0"
b11001 E
1A
#2940000
0A
#2950000
b1 7
b1 Z
b1 2"
b1 4"
b1000 h
b101000001000000001100000010 e
b10 6
b10 ^
b11100 <
b11100 [
b10 k
b11100 >
b11100 \
b11100 0"
b11010 E
1A
#2960000
0A
#2970000
b0 7
b0 Z
b0 2"
b0 4"
b1001 h
b10100000100000000110000001000000001 e
b1 6
b1 ^
b11101 <
b11101 [
b1 k
b11101 >
b11101 \
b11101 0"
b11011 E
1A
#2980000
0A
#2990000
b1010 h
b1010000010000000011000000100000000100000000 e
b0 6
b0 ^
b11110 <
b11110 [
b0 k
b11110 >
b11110 \
b11110 0"
b11100 E
1A
#3000000
0A
#3010000
b10000 7
b10000 Z
b10000 2"
b10000 4"
b1011 h
b11111 <
b11111 [
b11111 >
b11111 \
b11111 0"
b11101 E
1A
#3020000
0A
#3030000
b11111111 7
b11111111 Z
b11111111 2"
b11111111 4"
b1100 h
b1000 j
b10000 g
b10000 6
b10000 ^
b100000 <
b100000 [
b10000 k
b100000 >
b100000 \
b100000 0"
b11110 E
1A
#3040000
0A
#3050000
b11101110 7
b11101110 Z
b11101110 2"
b11101110 4"
b1001 j
b10000 ,
b10000 l
b10000 n
b11111111 6
b11111111 ^
b100001 <
b100001 [
b11111111 k
b100001 >
b100001 \
b100001 0"
b1000 m
b11111 E
1A
#3060000
0A
#3070000
b11011101 7
b11011101 Z
b11011101 2"
b11011101 4"
b0 j
1+
b11101110 6
b11101110 ^
b100010 <
b100010 [
b11101110 k
b100010 >
b100010 \
b100010 0"
b1001 m
b100000 E
1A
#3080000
0A
#3090000
b0 5
b0 o
b0 ,"
b11001100 7
b11001100 Z
b11001100 2"
b11001100 4"
b1 j
1.
b10100 w
b10 !"
1&
b1 ;
b1 q
b1 #"
b11011101 6
b11011101 ^
b100011 <
b100011 [
b11011101 k
b100011 >
b100011 \
b100011 0"
b0 m
b100001 E
1A
#3100000
0A
#3110000
b10111011 7
b10111011 Z
b10111011 2"
b10111011 4"
b1 u
b10000 "
b10000 %"
b10000 s
b11001100 6
b11001100 ^
b100100 <
b100100 [
b11001100 k
b100100 >
b100100 \
b100100 0"
b1 m
b10 ;
b10 q
b10 #"
b10 ""
b100010 E
1A
#3120000
0A
#3130000
b10101010 7
b10101010 Z
b10101010 2"
b10101010 4"
b10 u
b100 "
b100 %"
b100 s
b11 ;
b11 q
b11 #"
b10111011 6
b10111011 ^
b100101 <
b100101 [
b10111011 k
b100101 >
b100101 \
b100101 0"
b100011 E
1A
#3140000
0A
#3150000
b10011001 7
b10011001 Z
b10011001 2"
b10011001 4"
b11 u
b0 "
b0 %"
b0 s
b10101010 6
b10101010 ^
b100110 <
b100110 [
b10101010 k
b100110 >
b100110 \
b100110 0"
b100 ;
b100 q
b100 #"
b100100 E
1A
#3160000
0A
#3170000
b10001000 7
b10001000 Z
b10001000 2"
b10001000 4"
b100 u
b10000 |
b0 }
b11 !"
b10100 "
b10100 %"
b10100 s
b101 ;
b101 q
b101 #"
b10011001 6
b10011001 ^
b100111 <
b100111 [
b10011001 k
b100111 >
b100111 \
b100111 0"
b100101 E
1A
#3180000
0A
#3190000
b1110111 7
b1110111 Z
b1110111 2"
b1110111 4"
b1 }
b0 "
b0 %"
b0 s
b10001000 6
b10001000 ^
b101000 <
b101000 [
b10001000 k
b101000 >
b101000 \
b101000 0"
b110 ;
b110 q
b110 #"
b11 ""
b100110 E
1A
#3200000
0A
#3210000
b1100110 7
b1100110 Z
b1100110 2"
b1100110 4"
b10 }
b10000 "
b10000 %"
b10000 s
b111 ;
b111 q
b111 #"
b1110111 6
b1110111 ^
b101001 <
b101001 [
b1110111 k
b101001 >
b101001 \
b101001 0"
b100111 E
1A
#3220000
0A
#3230000
b1010101 7
b1010101 Z
b1010101 2"
b1010101 4"
b11 }
b0 "
b0 %"
b0 s
b1100110 6
b1100110 ^
b101010 <
b101010 [
b1100110 k
b101010 >
b101010 \
b101010 0"
b1000 ;
b1000 q
b1000 #"
b101000 E
1A
#3240000
0A
#3250000
b1000100 7
b1000100 Z
b1000100 2"
b1000100 4"
b100 }
b1001 ;
b1001 q
b1001 #"
b1010101 6
b1010101 ^
b101011 <
b101011 [
b1010101 k
b101011 >
b101011 \
b101011 0"
b101001 E
1A
#3260000
0A
#3270000
b110011 7
b110011 Z
b110011 2"
b110011 4"
b101 }
b1000100 6
b1000100 ^
b101100 <
b101100 [
b1000100 k
b101100 >
b101100 \
b101100 0"
b1010 ;
b1010 q
b1010 #"
b101010 E
1A
#3280000
0A
#3290000
b100010 7
b100010 Z
b100010 2"
b100010 4"
b110 }
b1011 ;
b1011 q
b1011 #"
b110011 6
b110011 ^
b101101 <
b101101 [
b110011 k
b101101 >
b101101 \
b101101 0"
b101011 E
1A
#3300000
0A
#3310000
b10001 7
b10001 Z
b10001 2"
b10001 4"
b111 }
b100010 6
b100010 ^
b101110 <
b101110 [
b100010 k
b101110 >
b101110 \
b101110 0"
b1100 ;
b1100 q
b1100 #"
b101100 E
1A
#3320000
0A
