src/ecpri/rx_tx/ecpri.vcd
$date
	Fri Nov 13 00:25:25 2020
$end
$version
	Icarus Verilog
$end
$timescale
	1ns
$end
$scope module tb_ecpri $end
$var wire 8 ! data_ecpri_rx_2_ram_cpri_payload [7:0] $end
$var wire 8 " data_to_eth_ram [7:0] $end
$var wire 1 # we_ecpri_rx_2_ram_eth_packet_hdr $end
$var wire 1 $ we_ecpri_rx_2_ram_cpri_payload $end
$var wire 1 % we_ecpri_rx_2_eth_ram $end
$var wire 1 & send_write_resp $end
$var wire 1 ' send_read_resp $end
$var wire 8 ( resp_payload_len [7:0] $end
$var wire 1 ) oe_ecpri_rx_2_ram_eth_packet_hdr $end
$var wire 1 * oe_ecpri_rx_2_ram_cpri_payload $end
$var wire 1 + oe_ecpri_rx_2_eth_ram $end
$var wire 8 , data_ecpri_tx_2_ram_cpri_payload [7:0] $end
$var wire 8 - data_ecpri_rx_2_ram_eth_packet_hdr [7:0] $end
$var wire 8 . data_ecpri_rx_2_eth_ram [7:0] $end
$var wire 16 / addr_ecpri_rx_2_ram_eth_packet_hdr [15:0] $end
$var wire 16 0 addr_ecpri_rx_2_ram_cpri_payload [15:0] $end
$var wire 16 1 addr_ecpri_rx_2_eth_ram [15:0] $end
$var reg 16 2 addr_ecpri_tx_2_ram_cpri_payload [15:0] $end
$var reg 16 3 addr_to_eth_ram [15:0] $end
$var reg 1 4 clk $end
$var reg 1 5 cs_0 $end
$var reg 1 6 cs_1 $end
$var reg 1800 7 err_str [1800:1] $end
$var reg 32 8 i [31:0] $end
$var reg 8 9 inp_data_fifo [7:0] $end
$var reg 32 : j [31:0] $end
$var reg 1 ; oe_ecpri_tx_2_ram_cpri_payload $end
$var reg 1 < oe_to_eth_ram $end
$var reg 32 = payload_len [31:0] $end
$var reg 1 > recv_pkt $end
$var reg 1 ? reset $end
$var reg 8 @ tb_data [7:0] $end
$var reg 32 A temp [31:0] $end
$var reg 1 B we_ecpri_tx_2_ram_cpri_payload $end
$var reg 1 C we_to_eth_ram $end
$var integer 32 D eof [31:0] $end
$var integer 32 E errorno [31:0] $end
$var integer 32 F fd [31:0] $end
$var integer 32 G fdw [31:0] $end
$var integer 32 H pcap_file_hdr_len [31:0] $end
$var integer 32 I pcap_payload_offset [31:0] $end
$var integer 32 J pcap_pkt_hdr_len [31:0] $end
$var integer 32 K return_value [31:0] $end
$scope module dut_ecpri_rx $end
$var wire 1 4 clk $end
$var wire 8 L inp_data_fifo [7:0] $end
$var wire 1 > recv_pkt $end
$var wire 1 ? reset $end
$var wire 8 M data_1 [7:0] $end
$var reg 16 N addr_0 [15:0] $end
$var reg 16 O addr_1 [15:0] $end
$var reg 16 P addr_2 [15:0] $end
$var reg 8 Q data_0 [7:0] $end
$var reg 8 R data_2 [7:0] $end
$var reg 8 S g_hdr_offset [7:0] $end
$var reg 8 T g_msg_type [7:0] $end
$var reg 16 U g_payload_len [15:0] $end
$var reg 8 V g_ver [7:0] $end
$var reg 8 W inp_d [7:0] $end
$var reg 8 X l_rm_acc_id [7:0] $end
$var reg 48 Y l_rm_addr [47:0] $end
$var reg 16 Z l_rm_ele_id [15:0] $end
$var reg 16 [ l_rm_len [15:0] $end
$var reg 8 \ l_rm_mem_hdr_offset [7:0] $end
$var reg 8 ] l_rm_rw_req_resp [7:0] $end
$var reg 8 ^ next_state [7:0] $end
$var reg 1 ) oe_0 $end
$var reg 1 + oe_1 $end
$var reg 1 * oe_2 $end
$var reg 8 _ prev_d [7:0] $end
$var reg 8 ` resp_payload_len [7:0] $end
$var reg 1 ' send_read_resp $end
$var reg 1 & send_write_resp $end
$var reg 8 a state [7:0] $end
$var reg 1 # we_0 $end
$var reg 1 % we_1 $end
$var reg 1 $ we_2 $end
$upscope $end
$scope module ram_cpri_payload $end
$var wire 16 b address_0 [15:0] $end
$var wire 16 c address_1 [15:0] $end
$var wire 1 4 clk $end
$var wire 1 5 cs_0 $end
$var wire 1 6 cs_1 $end
$var wire 8 d data_0 [7:0] $end
$var wire 1 * oe_0 $end
$var wire 1 ; oe_1 $end
$var wire 1 $ we_0 $end
$var wire 1 B we_1 $end
$var wire 8 e data_1 [7:0] $end
$var reg 8 f data_0_out [7:0] $end
$var reg 8 g data_1_out [7:0] $end
$scope begin MEM_READ_0 $end
$upscope $end
$scope begin MEM_READ_1 $end
$upscope $end
$scope begin MEM_WRITE $end
$upscope $end
$upscope $end
$scope module ram_recv_eth_packet $end
$var wire 16 h address_0 [15:0] $end
$var wire 16 i address_1 [15:0] $end
$var wire 1 4 clk $end
$var wire 1 5 cs_0 $end
$var wire 1 6 cs_1 $end
$var wire 8 j data_0 [7:0] $end
$var wire 1 < oe_0 $end
$var wire 1 + oe_1 $end
$var wire 1 C we_0 $end
$var wire 1 % we_1 $end
$var wire 8 k data_1 [7:0] $end
$var reg 8 l data_0_out [7:0] $end
$var reg 8 m data_1_out [7:0] $end
$scope begin MEM_READ_0 $end
$upscope $end
$scope begin MEM_READ_1 $end
$upscope $end
$scope begin MEM_WRITE $end
$upscope $end
$upscope $end
$upscope $end
$scope module tb_ecpri $end
$scope module ram_recv_eth_packet $end
$scope begin MEM_READ_0 $end
$upscope $end
$scope begin MEM_READ_1 $end
$upscope $end
$scope begin MEM_WRITE $end
$upscope $end
$upscope $end
$upscope $end
$scope module tb_ecpri $end
$scope module dut_ecpri_rx $end
$upscope $end
$upscope $end
$scope module tb_ecpri $end
$scope module ram_cpri_payload $end
$scope begin MEM_READ_0 $end
$upscope $end
$scope begin MEM_READ_1 $end
$upscope $end
$scope begin MEM_WRITE $end
$upscope $end
$upscope $end
$upscope $end
$enddefinitions $end
#0
$dumpvars
bx m
bx l
bx k
bx j
bx i
bx h
bx g
bx f
bx e
bx d
bx c
bx b
bx a
bx `
bx _
bx ^
bx ]
bx \
bx [
bx Z
bx Y
bx X
bx W
bx V
bx U
bx T
bx S
bx R
bx Q
bx P
bx O
bx N
bx M
bx L
bx K
bx J
bx I
bx H
bx G
bx F
bx E
bx D
xC
xB
bx A
bx @
x?
x>
bx =
x<
x;
bx :
bx 9
bx 8
bx 7
x6
x5
04
bx 3
bx 2
bx 1
bx 0
bx /
bx .
bx -
bx ,
x+
x*
x)
bx (
x'
x&
x%
x$
x#
bx "
bx !
$end
#10000
b0 g
b0 f
b0 m
b0 l
1+
b0 :
b0 8
0C
b0 3
b0 h
0?
14
#20000
04
#30000
14
b1101000 D
b10000000000000000000000000000100 G
b10000000000000000000000000000011 F
#40000
04
#50000
14
#60000
04
#70000
14
#80000
04
b1000000 =
b1101000 A
b10000 K
b101000 I
b10000000 J
b11000000 H
#90000
14
#100000
04
#110000
14
#120000
04
#130000
b0 "
b0 j
b1 :
b0 @
0<
15
1C
14
b101001 8
#140000
04
#150000
b10000000 "
b10000000 j
b101010 8
b10 :
b10000000 @
b1 3
b1 h
14
#160000
04
#170000
b10110 "
b10110 j
b101011 8
b11 :
b10110 @
b10 3
b10 h
14
#180000
04
#190000
b0 "
b0 j
b101100 8
b100 :
b0 @
b11 3
b11 h
14
#200000
04
#210000
b101101 8
b101 :
b100 3
b100 h
14
#220000
04
#230000
b101110 8
b110 :
b101 3
b101 h
14
#240000
04
#250000
b101111 8
b111 :
b110 3
b110 h
14
#260000
04
#270000
b10000000 "
b10000000 j
b110000 8
b1000 :
b10000000 @
b111 3
b111 h
14
#280000
04
#290000
b10110 "
b10110 j
b110001 8
b1001 :
b10110 @
b1000 3
b1000 h
14
#300000
04
#310000
b10001000 "
b10001000 j
b110010 8
b1010 :
b10001000 @
b1001 3
b1001 h
14
#320000
04
#330000
b1001110 "
b1001110 j
b110011 8
b1011 :
b1001110 @
b1010 3
b1010 h
14
#340000
04
#350000
b11111111 "
b11111111 j
b110100 8
b1100 :
b11111111 @
b1011 3
b1011 h
14
#360000
04
#370000
b10101110 "
b10101110 j
b110101 8
b1101 :
b10101110 @
b1100 3
b1100 h
14
#380000
04
#390000
b11111110 "
b11111110 j
b110110 8
b1110 :
b11111110 @
b1101 3
b1101 h
14
#400000
04
#410000
b10000 "
b10000 j
b110111 8
b1111 :
b10000 @
b1110 3
b1110 h
14
#420000
04
#430000
b100 "
b100 j
b111000 8
b10000 :
b100 @
b1111 3
b1111 h
14
#440000
04
#450000
b0 "
b0 j
b111001 8
b10001 :
b0 @
b10000 3
b10000 h
14
#460000
04
#470000
b11100 "
b11100 j
b111010 8
b10010 :
b11100 @
b10001 3
b10001 h
14
#480000
04
#490000
b10001 "
b10001 j
b111011 8
b10011 :
b10001 @
b10010 3
b10010 h
14
#500000
04
#510000
b0 "
b0 j
b111100 8
b10100 :
b0 @
b10011 3
b10011 h
14
#520000
04
#530000
b100010 "
b100010 j
b111101 8
b10101 :
b100010 @
b10100 3
b10100 h
14
#540000
04
#550000
b110011 "
b110011 j
b111110 8
b10110 :
b110011 @
b10101 3
b10101 h
14
#560000
04
#570000
b101 "
b101 j
b111111 8
b10111 :
b101 @
b10110 3
b10110 h
14
#580000
04
#590000
b100 "
b100 j
b1000000 8
b11000 :
b100 @
b10111 3
b10111 h
14
#600000
04
#610000
b11 "
b11 j
b1000001 8
b11001 :
b11 @
b11000 3
b11000 h
14
#620000
04
#630000
b10 "
b10 j
b1000010 8
b11010 :
b10 @
b11001 3
b11001 h
14
#640000
04
#650000
b1 "
b1 j
b1000011 8
b11011 :
b1 @
b11010 3
b11010 h
14
#660000
04
#670000
b0 "
b0 j
b1000100 8
b11100 :
b0 @
b11011 3
b11011 h
14
#680000
04
#690000
b1000101 8
b11101 :
b11100 3
b11100 h
14
#700000
04
#710000
b10000 "
b10000 j
b1000110 8
b11110 :
b10000 @
b11101 3
b11101 h
14
#720000
04
#730000
b11111111 "
b11111111 j
b1000111 8
b11111 :
b11111111 @
b11110 3
b11110 h
14
#740000
04
#750000
b11101110 "
b11101110 j
b1001000 8
b100000 :
b11101110 @
b11111 3
b11111 h
14
#760000
04
#770000
b11011101 "
b11011101 j
b1001001 8
b100001 :
b11011101 @
b100000 3
b100000 h
14
#780000
04
#790000
b11001100 "
b11001100 j
b1001010 8
b100010 :
b11001100 @
b100001 3
b100001 h
14
#800000
04
#810000
b10111011 "
b10111011 j
b1001011 8
b100011 :
b10111011 @
b100010 3
b100010 h
14
#820000
04
#830000
b10101010 "
b10101010 j
b1001100 8
b100100 :
b10101010 @
b100011 3
b100011 h
14
#840000
04
#850000
b10011001 "
b10011001 j
b1001101 8
b100101 :
b10011001 @
b100100 3
b100100 h
14
#860000
04
#870000
b10001000 "
b10001000 j
b1001110 8
b100110 :
b10001000 @
b100101 3
b100101 h
14
#880000
04
#890000
b1110111 "
b1110111 j
b1001111 8
b100111 :
b1110111 @
b100110 3
b100110 h
14
#900000
04
#910000
b1100110 "
b1100110 j
b1010000 8
b101000 :
b1100110 @
b100111 3
b100111 h
14
#920000
04
#930000
b1010101 "
b1010101 j
b1010001 8
b101001 :
b1010101 @
b101000 3
b101000 h
14
#940000
04
#950000
b1000100 "
b1000100 j
b1010010 8
b101010 :
b1000100 @
b101001 3
b101001 h
14
#960000
04
#970000
b110011 "
b110011 j
b1010011 8
b101011 :
b110011 @
b101010 3
b101010 h
14
#980000
04
#990000
b100010 "
b100010 j
b1010100 8
b101100 :
b100010 @
b101011 3
b101011 h
14
#1000000
04
#1010000
b10001 "
b10001 j
b1010101 8
b101101 :
b10001 @
b101100 3
b101100 h
14
#1020000
04
#1030000
b0 "
b0 j
b1010110 8
b101110 :
b0 @
b101101 3
b101101 h
14
#1040000
04
#1050000
b1010111 8
b101111 :
b101110 3
b101110 h
14
#1060000
04
#1070000
b1011000 8
b110000 :
b101111 3
b101111 h
14
#1080000
04
#1090000
b1011001 8
b110001 :
b110000 3
b110000 h
14
#1100000
04
#1110000
b1011010 8
b110010 :
b110001 3
b110001 h
14
#1120000
04
#1130000
b1011011 8
b110011 :
b110010 3
b110010 h
14
#1140000
04
#1150000
b1011100 8
b110100 :
b110011 3
b110011 h
14
#1160000
04
#1170000
b1011101 8
b110101 :
b110100 3
b110100 h
14
#1180000
04
#1190000
b1011110 8
b110110 :
b110101 3
b110101 h
14
#1200000
04
#1210000
b1011111 8
b110111 :
b110110 3
b110110 h
14
#1220000
04
#1230000
b1100000 8
b111000 :
b110111 3
b110111 h
14
#1240000
04
#1250000
b1100001 8
b111001 :
b111000 3
b111000 h
14
#1260000
04
#1270000
b1100010 8
b111010 :
b111001 3
b111001 h
14
#1280000
04
#1290000
b1100011 8
b111011 :
b111010 3
b111010 h
14
#1300000
04
#1310000
b1100100 8
b111100 :
b111011 3
b111011 h
14
#1320000
04
#1330000
b100010 "
b100010 j
b1100101 8
b111101 :
b100010 @
b111100 3
b111100 h
14
#1340000
04
#1350000
b110011 "
b110011 j
b1100110 8
b111110 :
b110011 @
b111101 3
b111101 h
14
#1360000
04
#1370000
b1000100 "
b1000100 j
b1100111 8
b111111 :
b1000100 @
b111110 3
b111110 h
14
#1380000
04
#1390000
b1010101 "
b1010101 j
b1101000 8
b1000000 :
b1010101 @
b111111 3
b111111 h
14
#1400000
04
#1410000
14
#1420000
04
#1430000
14
#1440000
04
#1450000
14
#1460000
04
#1470000
14
#1480000
04
#1490000
b0 !
b0 d
bz .
bz M
bz k
b0 [
b0 Y
b0 Z
b0 ]
b0 X
b0 U
b0 T
b0 V
b0 S
b0 ^
0*
0$
b0 R
b0 0
b0 P
b0 b
0+
0%
b0 1
b0 O
b0 i
0)
0#
b0 -
b0 Q
b0 /
b0 N
b0 (
b0 `
0'
0&
b0 a
1?
14
#1500000
04
#1510000
14
#1520000
04
#1530000
14
#1540000
04
#1550000
0?
14
#1560000
04
#1570000
bx .
bx M
bx k
bz -
bz Q
b1 /
b1 N
1+
bz _
b1 1
b1 O
b1 i
14
#1580000
04
#1590000
bx -
bx Q
b10 /
b10 N
bx _
b10 1
b10 O
b10 i
14
#1600000
04
b0 8
#1610000
b0 .
b0 M
b0 k
05
16
1>
b11 /
b11 N
b11 1
b11 O
b11 i
b1 8
14
#1620000
04
#1630000
b10110 .
b10110 M
b10110 k
b10110 m
b1 ^
b0 -
b0 Q
b100 /
b100 N
b0 _
b100 1
b100 O
b100 i
b10 8
14
#1640000
04
#1650000
1#
b0 .
b0 M
b0 k
b0 m
b10110 -
b10110 Q
b101 /
b101 N
b10110 _
b101 1
b101 O
b101 i
b1 a
b11 8
14
#1660000
04
#1670000
b0 -
b0 Q
b110 /
b110 N
b0 _
b110 1
b110 O
b110 i
b100 8
14
#1680000
04
#1690000
b111 /
b111 N
b111 1
b111 O
b111 i
b101 8
14
#1700000
04
#1710000
b1000 /
b1000 N
b1000 1
b1000 O
b1000 i
b110 8
14
#1720000
04
#1730000
b10000000 .
b10000000 M
b10000000 k
b10000000 m
b1001 /
b1001 N
b1001 1
b1001 O
b1001 i
b111 8
14
#1740000
04
#1750000
b10110 .
b10110 M
b10110 k
b10110 m
b10000000 -
b10000000 Q
b1010 /
b1010 N
b10000000 _
b1010 1
b1010 O
b1010 i
b1000 8
14
#1760000
04
#1770000
b10001000 .
b10001000 M
b10001000 k
b10001000 m
b10110 -
b10110 Q
b1011 /
b1011 N
b10110 _
b1011 1
b1011 O
b1011 i
b1001 8
14
#1780000
04
#1790000
b1001110 .
b1001110 M
b1001110 k
b1001110 m
b10001000 -
b10001000 Q
b1100 /
b1100 N
b10001000 _
b1100 1
b1100 O
b1100 i
b1010 8
14
#1800000
04
#1810000
b11111111 .
b11111111 M
b11111111 k
b11111111 m
b1001110 -
b1001110 Q
b1101 /
b1101 N
b1001110 _
b1101 1
b1101 O
b1101 i
b1011 8
14
#1820000
04
#1830000
b10101110 .
b10101110 M
b10101110 k
b10101110 m
b11111111 -
b11111111 Q
b1110 /
b1110 N
b11111111 _
b1110 1
b1110 O
b1110 i
b1100 8
14
#1840000
04
#1850000
b11111110 .
b11111110 M
b11111110 k
b11111110 m
b10101110 -
b10101110 Q
b1111 /
b1111 N
b10101110 _
b1111 1
b1111 O
b1111 i
b1101 8
14
#1860000
04
#1870000
b10000 .
b10000 M
b10000 k
b10000 m
b10 ^
b11111110 -
b11111110 Q
b10000 /
b10000 N
b11111110 _
b10000 1
b10000 O
b10000 i
b1110 8
14
#1880000
04
#1890000
b100 .
b100 M
b100 k
b100 m
b1 S
b10000 V
b10000 -
b10000 Q
b10001 /
b10001 N
b10000 _
b10001 1
b10001 O
b10001 i
b10 a
b1111 8
14
#1900000
04
#1910000
b0 .
b0 M
b0 k
b0 m
b10 S
b100 T
b100 -
b100 Q
b10010 /
b10010 N
b100 _
b10010 1
b10010 O
b10010 i
b10000 8
14
#1920000
04
#1930000
b11100 .
b11100 M
b11100 k
b11100 m
b11 S
b0 -
b0 Q
b10011 /
b10011 N
b0 _
b10011 1
b10011 O
b10011 i
b10001 8
14
#1940000
04
#1950000
b10001 .
b10001 M
b10001 k
b10001 m
b100 S
b0 \
b11 ^
b11100 U
b11100 -
b11100 Q
b10100 /
b10100 N
b11100 _
b10100 1
b10100 O
b10100 i
b10010 8
14
#1960000
04
#1970000
b0 .
b0 M
b0 k
b0 m
b1 \
b10001 X
b10001 -
b10001 Q
b10101 /
b10101 N
b10001 _
b10101 1
b10101 O
b10101 i
b11 a
b10011 8
14
#1980000
04
#1990000
b100010 .
b100010 M
b100010 k
b100010 m
b10 \
b0 -
b0 Q
b10110 /
b10110 N
b0 _
b10110 1
b10110 O
b10110 i
b10100 8
14
#2000000
04
#2010000
b110011 .
b110011 M
b110011 k
b110011 m
b11 \
b100010 Z
b100010 -
b100010 Q
b10111 /
b10111 N
b100010 _
b10111 1
b10111 O
b10111 i
b10101 8
14
#2020000
04
#2030000
b101 .
b101 M
b101 k
b101 m
b100 \
b10001000110011 Z
b110011 -
b110011 Q
b11000 /
b11000 N
b110011 _
b11000 1
b11000 O
b11000 i
b10110 8
14
#2040000
04
#2050000
b100 .
b100 M
b100 k
b100 m
b101 \
b101 Y
b101 -
b101 Q
b11001 /
b11001 N
b101 _
b11001 1
b11001 O
b11001 i
b10111 8
14
#2060000
04
#2070000
b11 .
b11 M
b11 k
b11 m
b110 \
b10100000100 Y
b100 -
b100 Q
b11010 /
b11010 N
b100 _
b11010 1
b11010 O
b11010 i
b11000 8
14
#2080000
04
#2090000
b10 .
b10 M
b10 k
b10 m
b111 \
b1010000010000000011 Y
b11 -
b11 Q
b11011 /
b11011 N
b11 _
b11011 1
b11011 O
b11011 i
b11001 8
14
#2100000
04
#2110000
b1 .
b1 M
b1 k
b1 m
b1000 \
b101000001000000001100000010 Y
b10 -
b10 Q
b11100 /
b11100 N
b10 _
b11100 1
b11100 O
b11100 i
b11010 8
14
#2120000
04
#2130000
b0 .
b0 M
b0 k
b0 m
b1001 \
b10100000100000000110000001000000001 Y
b1 -
b1 Q
b11101 /
b11101 N
b1 _
b11101 1
b11101 O
b11101 i
b11011 8
14
#2140000
04
#2150000
b1010 \
b1010000010000000011000000100000000100000000 Y
b0 -
b0 Q
b11110 /
b11110 N
b0 _
b11110 1
b11110 O
b11110 i
b11100 8
14
#2160000
04
#2170000
b10000 .
b10000 M
b10000 k
b10000 m
b1011 \
b11111 /
b11111 N
b11111 1
b11111 O
b11111 i
b11101 8
14
#2180000
04
#2190000
b11111111 .
b11111111 M
b11111111 k
b11111111 m
b1100 \
b1000 ^
b10000 [
b10000 -
b10000 Q
b100000 /
b100000 N
b10000 _
b100000 1
b100000 O
b100000 i
b11110 8
14
#2200000
04
#2210000
b11101110 .
b11101110 M
b11101110 k
b11101110 m
b1001 ^
b10000 (
b10000 `
b11111111 -
b11111111 Q
b100001 /
b100001 N
b11111111 _
b100001 1
b100001 O
b100001 i
b1000 a
b11111 8
14
#2220000
04
#2230000
b11011101 .
b11011101 M
b11011101 k
b11011101 m
b0 ^
1'
b11101110 -
b11101110 Q
b100010 /
b100010 N
b11101110 _
b100010 1
b100010 O
b100010 i
b1001 a
b100000 8
14
#2240000
04
#2250000
b11001100 .
b11001100 M
b11001100 k
b11001100 m
b1 ^
b11011101 -
b11011101 Q
b100011 /
b100011 N
b11011101 _
b100011 1
b100011 O
b100011 i
b0 a
b100001 8
14
#2260000
04
#2270000
b10111011 .
b10111011 M
b10111011 k
b10111011 m
b11001100 -
b11001100 Q
b100100 /
b100100 N
b11001100 _
b100100 1
b100100 O
b100100 i
b1 a
b100010 8
14
#2280000
04
#2290000
b10101010 .
b10101010 M
b10101010 k
b10101010 m
b10111011 -
b10111011 Q
b100101 /
b100101 N
b10111011 _
b100101 1
b100101 O
b100101 i
b100011 8
14
#2300000
04
#2310000
b10011001 .
b10011001 M
b10011001 k
b10011001 m
b10101010 -
b10101010 Q
b100110 /
b100110 N
b10101010 _
b100110 1
b100110 O
b100110 i
b100100 8
14
#2320000
04
#2330000
b10001000 .
b10001000 M
b10001000 k
b10001000 m
b10011001 -
b10011001 Q
b100111 /
b100111 N
b10011001 _
b100111 1
b100111 O
b100111 i
b100101 8
14
#2340000
04
#2350000
b1110111 .
b1110111 M
b1110111 k
b1110111 m
b10001000 -
b10001000 Q
b101000 /
b101000 N
b10001000 _
b101000 1
b101000 O
b101000 i
b100110 8
14
#2360000
04
#2370000
b1100110 .
b1100110 M
b1100110 k
b1100110 m
b1110111 -
b1110111 Q
b101001 /
b101001 N
b1110111 _
b101001 1
b101001 O
b101001 i
b100111 8
14
#2380000
04
#2390000
b1010101 .
b1010101 M
b1010101 k
b1010101 m
b1100110 -
b1100110 Q
b101010 /
b101010 N
b1100110 _
b101010 1
b101010 O
b101010 i
b101000 8
14
#2400000
04
#2410000
b1000100 .
b1000100 M
b1000100 k
b1000100 m
b1010101 -
b1010101 Q
b101011 /
b101011 N
b1010101 _
b101011 1
b101011 O
b101011 i
b101001 8
14
#2420000
04
#2430000
b110011 .
b110011 M
b110011 k
b110011 m
b1000100 -
b1000100 Q
b101100 /
b101100 N
b1000100 _
b101100 1
b101100 O
b101100 i
b101010 8
14
#2440000
04
#2450000
b100010 .
b100010 M
b100010 k
b100010 m
b110011 -
b110011 Q
b101101 /
b101101 N
b110011 _
b101101 1
b101101 O
b101101 i
b101011 8
14
#2460000
04
#2470000
b10001 .
b10001 M
b10001 k
b10001 m
b100010 -
b100010 Q
b101110 /
b101110 N
b100010 _
b101110 1
b101110 O
b101110 i
b101100 8
14
#2480000
04
#2490000
b0 .
b0 M
b0 k
b0 m
b10001 -
b10001 Q
b101111 /
b101111 N
b10001 _
b101111 1
b101111 O
b101111 i
b101101 8
14
#2500000
04
#2510000
b0 -
b0 Q
b110000 /
b110000 N
b0 _
b110000 1
b110000 O
b110000 i
b101110 8
14
#2520000
04
#2530000
b110001 /
b110001 N
b110001 1
b110001 O
b110001 i
b101111 8
14
#2540000
04
#2550000
b110010 /
b110010 N
b110010 1
b110010 O
b110010 i
b110000 8
14
#2560000
04
#2570000
b110011 /
b110011 N
b110011 1
b110011 O
b110011 i
b110001 8
14
#2580000
04
#2590000
b110100 /
b110100 N
b110100 1
b110100 O
b110100 i
b110010 8
14
#2600000
04
#2610000
b110101 /
b110101 N
b110101 1
b110101 O
b110101 i
b110011 8
14
#2620000
04
#2630000
b110110 /
b110110 N
b110110 1
b110110 O
b110110 i
b110100 8
14
#2640000
04
#2650000
b110111 /
b110111 N
b110111 1
b110111 O
b110111 i
b110101 8
14
#2660000
04
#2670000
b111000 /
b111000 N
b111000 1
b111000 O
b111000 i
b110110 8
14
#2680000
04
#2690000
b111001 /
b111001 N
b111001 1
b111001 O
b111001 i
b110111 8
14
#2700000
04
#2710000
b111010 /
b111010 N
b111010 1
b111010 O
b111010 i
b111000 8
14
#2720000
04
#2730000
b111011 /
b111011 N
b111011 1
b111011 O
b111011 i
b111001 8
14
#2740000
04
#2750000
b111100 /
b111100 N
b111100 1
b111100 O
b111100 i
b111010 8
14
#2760000
04
#2770000
b111101 /
b111101 N
b111101 1
b111101 O
b111101 i
b111011 8
14
#2780000
04
#2790000
b100010 .
b100010 M
b100010 k
b100010 m
b111110 /
b111110 N
b111110 1
b111110 O
b111110 i
b111100 8
14
#2800000
04
#2810000
b110011 .
b110011 M
b110011 k
b110011 m
b100010 -
b100010 Q
b111111 /
b111111 N
b100010 _
b111111 1
b111111 O
b111111 i
b111101 8
14
#2820000
04
#2830000
b1010101 .
b1010101 M
b1010101 k
b1010101 m
b110011 -
b110011 Q
b1000000 /
b1000000 N
b110011 _
b1000000 1
b1000000 O
b1000000 i
b111110 8
14
#2840000
04
#2850000
bx .
bx M
bx k
bx m
b1010101 -
b1010101 Q
b1000001 /
b1000001 N
b1010101 _
b1000001 1
b1000001 O
b1000001 i
b111111 8
14
#2860000
04
#2870000
bx -
bx Q
b1000010 /
b1000010 N
bx _
b1000010 1
b1000010 O
b1000010 i
b1000000 8
14
