src/ecpri/rx_tx/run.log
VCD info: dumpfile ecpri.vcd opened for output.
VCD warning: ignoring signals in previously scanned scope tb_ecpri.ram_recv_eth_packet.
VCD warning: ignoring signals in previously scanned scope tb_ecpri.ram_recv_eth_packet.MEM_READ_0.
VCD warning: ignoring signals in previously scanned scope tb_ecpri.ram_recv_eth_packet.MEM_READ_1.
VCD warning: ignoring signals in previously scanned scope tb_ecpri.ram_recv_eth_packet.MEM_WRITE.
VCD warning: ignoring signals in previously scanned scope tb_ecpri.dut_ecpri_rx.
VCD warning: ignoring signals in previously scanned scope tb_ecpri.ram_cpri_payload.
VCD warning: ignoring signals in previously scanned scope tb_ecpri.ram_cpri_payload.MEM_READ_0.
VCD warning: ignoring signals in previously scanned scope tb_ecpri.ram_cpri_payload.MEM_READ_1.
VCD warning: ignoring signals in previously scanned scope tb_ecpri.ram_cpri_payload.MEM_WRITE.
we_1 = x oe_1 = x addr_1 = xxxx data_1 = xx inp_d = xx state =   x nextstate =  x
we_1 = x oe_1 = 1 addr_1 = xxxx data_1 = xx inp_d = xx state =   x nextstate =  x
 tb: state 0
 tb: pcap file was opened
 tb: File closed
 tb: state 1
Size of pcap global header =         192          24
Size of per packet header =         128          16
tb: payload offet =          40
 tb: file hdr bits len =         24
 tb: pkt hdr bits len =         16
 tb: magic =d4c3b2a1
 tb: snaplen =ffff0000
 tb: linktype =01000000
 tb: pcap_payload_len = 00000040
 tb: state 2
 tb: state 4
we_1 = 0 oe_1 = 0 addr_1 = 0000 data_1 = zz inp_d = xx state =   0 nextstate =  0
 tb: state 5
we_1 = 0 oe_1 = 1 addr_1 = 0001 data_1 = xx inp_d = xx state =   0 nextstate =  0
we_1 = 0 oe_1 = 1 addr_1 = 0002 data_1 = xx inp_d = xx state =   0 nextstate =  0
 tb: state 6
we_1 = 0 oe_1 = 1 addr_1 = 0003 data_1 = 00 inp_d = xx state =   0 nextstate =  0
we_1 = 0 oe_1 = 1 addr_1 = 0004 data_1 = 16 inp_d = xx state =   0 nextstate =  1
we_1 = 0 oe_1 = 1 addr_1 = 0005 data_1 = 00 inp_d = xx state =   1 nextstate =  1
we_1 = 0 oe_1 = 1 addr_1 = 0006 data_1 = 00 inp_d = xx state =   1 nextstate =  1
we_1 = 0 oe_1 = 1 addr_1 = 0007 data_1 = 00 inp_d = xx state =   1 nextstate =  1
we_1 = 0 oe_1 = 1 addr_1 = 0008 data_1 = 00 inp_d = xx state =   1 nextstate =  1
we_1 = 0 oe_1 = 1 addr_1 = 0009 data_1 = 80 inp_d = xx state =   1 nextstate =  1
we_1 = 0 oe_1 = 1 addr_1 = 000a data_1 = 16 inp_d = xx state =   1 nextstate =  1
we_1 = 0 oe_1 = 1 addr_1 = 000b data_1 = 88 inp_d = xx state =   1 nextstate =  1
we_1 = 0 oe_1 = 1 addr_1 = 000c data_1 = 4e inp_d = xx state =   1 nextstate =  1
we_1 = 0 oe_1 = 1 addr_1 = 000d data_1 = ff inp_d = xx state =   1 nextstate =  1
we_1 = 0 oe_1 = 1 addr_1 = 000e data_1 = ae inp_d = xx state =   1 nextstate =  1
we_1 = 0 oe_1 = 1 addr_1 = 000f data_1 = fe inp_d = xx state =   1 nextstate =  1
we_1 = 0 oe_1 = 1 addr_1 = 0010 data_1 = 10 inp_d = xx state =   1 nextstate =  2
we_1 = 0 oe_1 = 1 addr_1 = 0011 data_1 = 04 inp_d = xx state =   2 nextstate =  2
we_1 = 0 oe_1 = 1 addr_1 = 0012 data_1 = 00 inp_d = xx state =   2 nextstate =  2
we_1 = 0 oe_1 = 1 addr_1 = 0013 data_1 = 1c inp_d = xx state =   2 nextstate =  2
we_1 = 0 oe_1 = 1 addr_1 = 0014 data_1 = 11 inp_d = xx state =   2 nextstate =  3
we_1 = 0 oe_1 = 1 addr_1 = 0015 data_1 = 00 inp_d = xx state =   3 nextstate =  3
we_1 = 0 oe_1 = 1 addr_1 = 0016 data_1 = 22 inp_d = xx state =   3 nextstate =  3
we_1 = 0 oe_1 = 1 addr_1 = 0017 data_1 = 33 inp_d = xx state =   3 nextstate =  3
we_1 = 0 oe_1 = 1 addr_1 = 0018 data_1 = 05 inp_d = xx state =   3 nextstate =  3
we_1 = 0 oe_1 = 1 addr_1 = 0019 data_1 = 04 inp_d = xx state =   3 nextstate =  3
we_1 = 0 oe_1 = 1 addr_1 = 001a data_1 = 03 inp_d = xx state =   3 nextstate =  3
we_1 = 0 oe_1 = 1 addr_1 = 001b data_1 = 02 inp_d = xx state =   3 nextstate =  3
we_1 = 0 oe_1 = 1 addr_1 = 001c data_1 = 01 inp_d = xx state =   3 nextstate =  3
we_1 = 0 oe_1 = 1 addr_1 = 001d data_1 = 00 inp_d = xx state =   3 nextstate =  3
we_1 = 0 oe_1 = 1 addr_1 = 001e data_1 = 00 inp_d = xx state =   3 nextstate =  3
we_1 = 0 oe_1 = 1 addr_1 = 001f data_1 = 10 inp_d = xx state =   3 nextstate =  3
we_1 = 0 oe_1 = 1 addr_1 = 0020 data_1 = ff inp_d = xx state =   3 nextstate =  8
we_1 = 0 oe_1 = 1 addr_1 = 0021 data_1 = ee inp_d = xx state =   8 nextstate =  9
we_1 = 0 oe_1 = 1 addr_1 = 0022 data_1 = dd inp_d = xx state =   9 nextstate =  0
we_1 = 0 oe_1 = 1 addr_1 = 0023 data_1 = cc inp_d = xx state =   0 nextstate =  1
we_1 = 0 oe_1 = 1 addr_1 = 0024 data_1 = bb inp_d = xx state =   1 nextstate =  1
we_1 = 0 oe_1 = 1 addr_1 = 0025 data_1 = aa inp_d = xx state =   1 nextstate =  1
we_1 = 0 oe_1 = 1 addr_1 = 0026 data_1 = 99 inp_d = xx state =   1 nextstate =  1
we_1 = 0 oe_1 = 1 addr_1 = 0027 data_1 = 88 inp_d = xx state =   1 nextstate =  1
we_1 = 0 oe_1 = 1 addr_1 = 0028 data_1 = 77 inp_d = xx state =   1 nextstate =  1
we_1 = 0 oe_1 = 1 addr_1 = 0029 data_1 = 66 inp_d = xx state =   1 nextstate =  1
we_1 = 0 oe_1 = 1 addr_1 = 002a data_1 = 55 inp_d = xx state =   1 nextstate =  1
we_1 = 0 oe_1 = 1 addr_1 = 002b data_1 = 44 inp_d = xx state =   1 nextstate =  1
we_1 = 0 oe_1 = 1 addr_1 = 002c data_1 = 33 inp_d = xx state =   1 nextstate =  1
we_1 = 0 oe_1 = 1 addr_1 = 002d data_1 = 22 inp_d = xx state =   1 nextstate =  1
we_1 = 0 oe_1 = 1 addr_1 = 002e data_1 = 11 inp_d = xx state =   1 nextstate =  1
we_1 = 0 oe_1 = 1 addr_1 = 002f data_1 = 00 inp_d = xx state =   1 nextstate =  1
we_1 = 0 oe_1 = 1 addr_1 = 0030 data_1 = 00 inp_d = xx state =   1 nextstate =  1
we_1 = 0 oe_1 = 1 addr_1 = 0031 data_1 = 00 inp_d = xx state =   1 nextstate =  1
we_1 = 0 oe_1 = 1 addr_1 = 0032 data_1 = 00 inp_d = xx state =   1 nextstate =  1
we_1 = 0 oe_1 = 1 addr_1 = 0033 data_1 = 00 inp_d = xx state =   1 nextstate =  1
we_1 = 0 oe_1 = 1 addr_1 = 0034 data_1 = 00 inp_d = xx state =   1 nextstate =  1
we_1 = 0 oe_1 = 1 addr_1 = 0035 data_1 = 00 inp_d = xx state =   1 nextstate =  1
we_1 = 0 oe_1 = 1 addr_1 = 0036 data_1 = 00 inp_d = xx state =   1 nextstate =  1
we_1 = 0 oe_1 = 1 addr_1 = 0037 data_1 = 00 inp_d = xx state =   1 nextstate =  1
we_1 = 0 oe_1 = 1 addr_1 = 0038 data_1 = 00 inp_d = xx state =   1 nextstate =  1
we_1 = 0 oe_1 = 1 addr_1 = 0039 data_1 = 00 inp_d = xx state =   1 nextstate =  1
we_1 = 0 oe_1 = 1 addr_1 = 003a data_1 = 00 inp_d = xx state =   1 nextstate =  1
we_1 = 0 oe_1 = 1 addr_1 = 003b data_1 = 00 inp_d = xx state =   1 nextstate =  1
we_1 = 0 oe_1 = 1 addr_1 = 003c data_1 = 00 inp_d = xx state =   1 nextstate =  1
we_1 = 0 oe_1 = 1 addr_1 = 003d data_1 = 00 inp_d = xx state =   1 nextstate =  1
we_1 = 0 oe_1 = 1 addr_1 = 003e data_1 = 22 inp_d = xx state =   1 nextstate =  1
we_1 = 0 oe_1 = 1 addr_1 = 003f data_1 = 33 inp_d = xx state =   1 nextstate =  1
we_1 = 0 oe_1 = 1 addr_1 = 0040 data_1 = 55 inp_d = xx state =   1 nextstate =  1
we_1 = 0 oe_1 = 1 addr_1 = 0041 data_1 = xx inp_d = xx state =   1 nextstate =  1
we_1 = 0 oe_1 = 1 addr_1 = 0042 data_1 = xx inp_d = xx state =   1 nextstate =  1
