src/ram/test_ram.vcd
$date
	Thu Oct 22 11:53:10 2020
$end
$version
	Icarus Verilog
$end
$timescale
	1s
$end
$scope module tb_ram $end
$var reg 1 ! clk $end
$upscope $end
$scope module tb_ram $end
$var reg 16 " addr [15:0] $end
$upscope $end
$scope module tb_ram $end
$var wire 8 # data [7:0] $end
$upscope $end
$scope module tb_ram $end
$var reg 1 $ cs $end
$upscope $end
$scope module tb_ram $end
$var reg 1 % we $end
$upscope $end
$scope module tb_ram $end
$var reg 1 & oe $end
$upscope $end
$scope module tb_ram $end
$scope module dut $end
$var wire 16 ' addr [15:0] $end
$var wire 1 ! clk $end
$var wire 1 $ cs $end
$var wire 8 ( data [7:0] $end
$var wire 1 & oe $end
$var wire 1 % we $end
$var reg 8 ) tmp_data [7:0] $end
$upscope $end
$upscope $end
$enddefinitions $end
#0
$dumpvars
bx )
b0 (
b0 '
0&
0%
0$
b0 #
b0 "
0!
$end
#10
1!
#20
0!
#30
1!
#40
0!
#50
b100100 #
b100100 (
1$
1%
1!
#60
0!
#70
b10000001 #
b10000001 (
b1 "
b1 '
1!
#80
0!
#90
b1001 #
b1001 (
b10 "
b10 '
1!
#100
0!
#110
b1100011 #
b1100011 (
b11 "
b11 '
1!
#120
0!
#130
b1101 #
b1101 (
b100 "
b100 '
1!
#140
0!
#150
b10001101 #
b10001101 (
b101 "
b101 '
1!
#160
0!
#170
b1100101 #
b1100101 (
b110 "
b110 '
1!
#180
0!
#190
b10010 #
b10010 (
b111 "
b111 '
1!
#200
0!
#210
b1 #
b1 (
b1000 "
b1000 '
1!
#220
0!
#230
b1101 #
b1101 (
b1001 "
b1001 '
1!
#240
0!
#250
bx #
bx (
1&
0%
b0 "
b0 '
1!
#260
0!
#270
b100100 #
b100100 (
b1 "
b1 '
b100100 )
1!
#280
0!
#290
b10000001 #
b10000001 (
b10000001 )
b10 "
b10 '
1!
#300
0!
#310
b1001 #
b1001 (
b11 "
b11 '
b1001 )
1!
#320
0!
#330
b1100011 #
b1100011 (
b1100011 )
b100 "
b100 '
1!
#340
0!
#350
b1101 #
b1101 (
b101 "
b101 '
b1101 )
1!
#360
0!
#370
b10001101 #
b10001101 (
b10001101 )
b110 "
b110 '
1!
#380
0!
#390
b1100101 #
b1100101 (
b111 "
b111 '
b1100101 )
1!
#400
0!
#410
b10010 #
b10010 (
b10010 )
b1000 "
b1000 '
1!
#420
0!
#430
b1 #
b1 (
b1001 "
b1001 '
b1 )
1!
#440
0!
#450
b1101 #
b1101 (
b1101 )
1!
